204

Au     18.491640110162077     15.083951647821685     18.230973046627213
Au     15.604592242563083     17.688904498417127     15.711022610430986
Au     15.538741147719914     15.703508699265472     13.579374333746953
Au     18.606640886028117     12.995336151594776     16.202230416094331
Au     16.601136016891399     12.805778338336493     18.401044004203868
Au     21.190455499289357     14.195124320501343     17.403781378509120
Au     20.687365751469848     14.964826988907140     20.294034913504809
Au     19.499487017335628     12.395962890103570     19.062170800731614
Au     13.404271859920035     17.878155025678254     13.702861859427607
Au     12.892164501333744     15.093280752736346     12.824178784525472
Au     16.670179305991958     14.993143065613481     11.094183086914098
Au     20.192144871424496     12.003512016093058     13.817798477186164
Au     17.892085372685237     10.413400751743110     17.520300521554287
Au     14.609689381406243     17.123668414912345     11.127282259388917
Au     14.520272868309885     11.602103176446565     19.879542741801394
Au     20.782141876015547     11.328860683568989     16.686428776235406
Au     22.608736401254369     13.191971205477364     15.197594376387514
Au     22.402056712392547     12.711210823371363     19.487400580413475
Au     17.395239269483920     11.133725356404504     20.676233388674511
Au     19.516589296253986      8.950557833454008     14.993838601378435
Au     10.003335786058448     14.079720893270027     14.116431536748305
Au     15.800238669767067      8.746113611986219     19.105035029200817
Au     24.086349327853323     11.402208392845077     17.287138182591011
Au     22.509118990750178     12.412174060615790     11.922435461215354
Au     18.301695050418420     18.403544224314995     15.107245631111784
Au     15.724011535344948     15.593624319840067     17.669263967248874
Au     13.502185624533018     15.616465950990753     15.706985513689009
Au     16.206408202646596     18.589330479958143     13.002957645497064
Au     18.413384573982956     16.492055606282591     12.881631667347676
Au     17.522392956073087     21.080465303953581     14.194330608074432
Au     20.393500484137491     20.558376268578410     14.842935853639823
Au     19.098019793479207     19.342859793787795     12.415192450189341
Au     13.678593118303318     13.421403518037643     17.736996461441276
Au     12.811159766640500     13.004172448840535     14.999921123281293
Au     11.003435940612432     16.807979958494464     14.996138590900959
Au     13.986810529590247     20.279986686134556     12.077632850678608
Au     17.485060750145990     17.793591541206531     10.503760357265286
Au     11.094011696018669     14.792536780552917     17.115618254176081
Au     19.994594004050892     14.413826879607333     11.616822974860757
Au     16.802616985184976     20.722159116524914     11.290392921295600
Au     15.483398392817458     22.615578635223883     13.086687797922190
Au     19.603821367681853     22.279496665053543     12.678846364376078
Au     20.806421079665721     17.274430529321418     11.305894392772247
Au     15.010497692992271     19.473252728924216      9.110504042634071
Au     14.100669016555591     10.024483283828500     13.925209688590650
Au     19.100154556250651     15.698935501966606      9.000977031419033
Au     17.407288622427004     23.995022362031701     11.212637962946586
Au     12.207464792663133     22.610996203946947     12.600605331154062
Au     15.135799141774877     18.280250555226285     18.423661704734897
Au     17.672690525441734     15.698837123057682     15.596036841255170
Au     15.700689340108141     13.495411266847976     15.597186703428907
Au     13.007984275859704     16.207265644610683     18.611449039458098
Au     12.899428977599452     18.481582351451721     16.579958072717673
Au     14.358383678965223     17.300032601003725     21.107842808529540
Au     14.857780270102188     20.329393869974623     20.524127894420797
Au     12.484928943628313     19.010543364975550     19.495157658568665
Au     17.794326041035319     13.607791696615642     13.406817780686902
Au     14.996796573126980     12.889534657957638     12.919637757400091
Au     14.998016947427171     10.997613486003976     16.790204526310649
Au     12.212651506799739     13.897421974366098     20.278554097324971
Au     10.509580776474742     17.669146195098907     17.805061426549905
Au     17.197092815079227     11.099555021378629     14.699948025404293
Au     11.613494313110506     19.997614209683213     14.609248222528853
Au     11.415769085511153     16.684108900811697     20.905417308753137
Au     13.310549842481088     15.190504779458493     22.676908231468687
Au     12.792165823085694     19.206358050144999     22.399633847667861
Au     11.201881903173348     20.726539993550364     17.502890144427870
Au      9.218999248373834     15.087259861626437     19.499306514436483
Au     13.731740768584711     14.195192158679765     10.101105434821070
Au      8.886529636275121     19.215089709921941     15.698557340647831
Au     11.508483056482254     17.118969779101064     24.193737227962185
Au     12.700815882116434     11.927615360548078     22.604322150332987
Au     16.729367585879945     20.052980937725707     16.819128660450502
Au     19.547692871312474     17.483163960190538     19.394030769140279
Au     19.535195345588647     19.472194427013740     21.593686640173676
Au     16.581386904371215     22.197191688636337     18.800099844294554
Au     18.684957611066082     22.284853966409933     16.608631910818055
Au     14.072691492956064     20.973529476225270     17.723105518873229
Au     14.601210514728269     20.378883798670230     14.818067074598217
Au     15.798206711094160     22.791690804250287     15.996400747804122
Au     21.779267427457299     17.491284465811482     21.489294931854182
Au     22.333385316977381     20.300445929945429     22.011603690833947
Au     18.192440605723149     20.285148937404792     24.083632912096331
Au     15.018042780558581     23.273373618354007     20.882623851641014
Au     17.279859956501902     24.677184996137008     17.589852853027246
Au     20.411176595222884     18.207733172122524     23.989084567557352
Au     21.001458296014857     23.398916111319405     15.187786650928077
Au     14.083350975749685     23.786037309161703     18.097413626492273
Au     12.518635772687368     21.888314481715994     19.992860835341169
Au     12.897821888553013     22.506035165896318     15.601906364012251
Au     17.992870242404170     24.064367408573531     14.528014439234584
Au     15.604268667633141     26.080088446023776     19.909063256799069
Au     25.000539125931645     21.279347503308959     20.906296396444240
Au     19.582598340666419     26.315018782272162     15.884326878256864
Au     10.982368486992396     23.890537136955597     17.883791782245517
Au     12.534624265178216     22.486277564936778     22.987048414860975
Au     16.920863894172221     16.677972446849701     19.991787508201632
Au     19.465129623235903     19.518150900056177     17.418115909623179
Au     21.612804356916975     19.591516010993878     19.398437578223913
Au     18.919720864795988     16.584099606412586     22.115002626841736
Au     16.785984798930993     18.614005245802840     22.214609668153575
Au     17.876737088950296     13.997417193771909     20.880852242007492
Au     14.983030917382784     14.503719784738134     20.279212061700377
Au     16.198862970844978     15.611895185218703     22.786515744022303
Au     21.542856950010499     21.636053199020438     17.341022782247894
Au     22.007748116205800     22.486810665335220     20.102068510657773
Au     24.255690131728173     18.177049816603656     20.073008322595602
Au     21.193214542011365     15.207976079571724     23.200428401925876
Au     17.677892919016578     17.193866788383534     24.661219695084686
Au     24.083885934847768     20.391034814957983     18.122879484513891
Au     15.113923553501467     20.793265821582910     23.296290833187975
Au     18.500268614868489     14.077395095288539     23.600636415443869
Au     20.391427653218834     12.611322258008947     21.808929824397403
Au     15.608332159361129     12.792805241662460     22.394289791492543
Au     14.803284413485395     17.867666036116766     24.073997326649302
Au     20.003093487135175     15.685559432748301     26.086126348718452
Au     20.990186849817139     25.104675574638673     21.110412539080468
Au     16.094832389193936     19.695758377051305     26.207645302621177
Au     18.089780996395351     10.924632605430460     23.595564993504055
Au     23.333818603800040     12.753930671175496     22.649685031442129
Au     20.073336556621332     16.811289875623537     16.681495708905466
Au     17.492187678846634     19.421963776175897     19.481253539589972
Au     19.403953395742022     21.679831741509023     19.480773808495016
Au     22.212645030460759     18.815783081115320     16.583201181220009
Au     22.309113354168410     16.732194598734655     18.617898261195204
Au     21.002396551245123     17.723042447010656     14.071795751494657
Au     20.285180443018238     14.800460165827477     14.518762794534561
Au     22.803958668595222     16.065199222000246     15.725124741077478
Au     17.316391767747866     21.527839276239582     21.592188979288881
Au     20.080663385752242     22.119686475127889     22.384667062031735
Au     20.209074393529423     24.192702718573784     18.008911540361481
Au     23.280195662211867     20.999438509194210     15.107317842358132
Au     24.788846179142531     17.613342238977939     17.204216314128267
Au     18.207380594102990     24.080249983895900     20.325180183970485
Au     23.501087413476590     15.205339161350265     20.878827481637192
Au     23.786724558500897     18.287466545033482     14.102636048921022
Au     21.896810842569490     20.184383391853508     12.512877580982108
Au     22.487779900340200     15.404235431432957     12.885970169485802
Au     24.079331364090876     14.695361204020855     17.989778785954144
Au     26.192909088498077     19.898097804392378     15.706432459034669
Au     21.279086955887447     21.082156981040928     24.995431789030828
Au     26.464750208046482     16.079950987703448     19.601499980284505
Au     23.865545868977506     17.808373509777624     11.110821275018727
Au     22.804585604439222     23.098605112812685     12.521377549851954
S      20.050956643606789      9.725708613706304     12.858714975543194
S      18.989947514042743      8.233419650836884     17.145633862673591
S      10.558418137763962     14.978817978740635     12.032910783514806
S       9.495325499729981     13.148879450233236     16.198645617949428
S      13.983605802441545      8.899066250699480     17.636997848928036
S      17.637081162264934      8.669843312963287     20.553111160230049
S      12.859723097304812     19.933392769825623      9.902897246469909
S      17.183838045245441     19.013381591479384      8.362344788750967
S      11.941223349841204     10.889934961122801     14.148265015021654
S      16.231792546341765      9.118863298373169     13.630794874566789
S      17.602934447862548     13.897102369400528      9.100811111253968
S      20.596326442007559     17.496796724126501      8.861509462712466
S      10.545177294436556     20.963867274723544     12.635899079474955
S      13.802154377369238     24.327357473312826     12.569186573072985
S       9.994025093609835     12.909581279107703     19.898952744570860
S       8.451865639378671     17.258685420659571     19.087624753991406
S      14.573907067015096     12.079528632468428     10.633323453065239
S      12.872813030801449     16.303055448751277      9.561521023328780
S       9.035316614095821     17.798125937776895     13.844722238859060
S       8.710993951827065     20.698538603594969     17.506339991926470
S      12.578346444403516     10.413820381199445     20.825566127196435
S      12.788712680269605     13.468784351271760     24.372164487743792
S      20.766498862038471     12.430794693800767     10.361987711478809
S      24.235066853037353     12.416027343903989     13.502125419170589
S      22.562207147512037      9.683583120927139     16.846385403905018
S      25.768681491248554     12.972182880031113     17.710742533742170
S      25.791387380305792     15.557145036631475     21.783107959939002
S      27.009327879203177     16.535431517961744     17.381195071428721
S      17.569572911569310     22.332866623543104      9.590410684612779
S      17.331942556271262     25.699128461482694     12.821170070447669
S      21.425152412128131     25.737001825218552     14.564308005394755
S      17.763636089821983     27.037982299855241     17.173954887045149
S      21.747351851888094     25.843366174503505     19.021728769201403
S      20.247432006012271     24.425135334960874     23.220904616762404
S      24.316643085706751     23.350902990562385     20.057852193998528
S      25.659699136568204     19.216620468384892     21.806870624460121
S      26.114582658402153     21.564435941831942     17.340476924169383
S      26.250630666409290     18.301283273984108     13.998227337961060
S      23.036139375184284     19.862453211398471     10.354703096707640
S      24.682456327821281     15.738782053548858     11.830009976163186
S      20.953638130221126     23.786626786397477     11.273475414635671
S      24.704075740342144     22.408195787196775     13.696791698839995
S      23.358891233489835     20.349658349098835     24.250836598560007
S      19.192836718315714     21.758714488358240     25.804861224764235
S      21.037188830893705     17.768808551392706     26.313822581095145
S      19.041794845304196     13.560581590849047     25.925749139497004
S      23.222581513830356     14.380903285977791     24.327613160648287
S      23.457153706002710     11.075974227620932     21.023973325470589
S      16.003266496109092     11.521139808885856     24.455795602082414
S      20.229744533820845     10.374462319512398     22.829017370446355
S      13.233681212353588     17.005548455586137     25.773892899178559
S       9.786244469952694     17.365349189933841     22.627156590383890
S      14.078147348539581     24.242651052065202     22.925512915227621
S      10.993957793566572     20.739639670194812     23.100354161959750
S      17.254394127945549     25.974577517298581     21.566307424343194
S      13.990510297253131     26.236757217495914     18.231815209776933
S      10.809235357783475     23.651310038363260     20.198170843865789
S      11.083033741434891     24.176635242333830     15.565822389412119
S      14.703978100844211     21.474868570771868     25.619335698308159
S      17.434905846578662     17.942041679891013     26.981574761620536
